module ignite91/stress-myapp

go 1.20

require (
	cloud.google.com/go/pubsub v1.31.0
	google.golang.org/grpc v1.56.0
	google.golang.org/protobuf v1.30.0
)

require (
	github.com/golang/protobuf v1.5.3 // indirect
	golang.org/x/net v0.10.0 // indirect
	golang.org/x/sys v0.8.0 // indirect
	golang.org/x/text v0.9.0 // indirect
	google.golang.org/genproto v0.0.0-20230410155749-daa745c078e1 // indirect
)
